<svg xmlns="http://www.w3.org/2000/svg" width="50.572" height="36.055" viewBox="0 0 50.572 36.055">
  <g id="Group_10597" data-name="Group 10597" transform="translate(0 -73.484)">
    <path id="Path_22012" data-name="Path 22012" d="M46.81,73.484H9.125a3.767,3.767,0,0,0-3.762,3.764v1.844h-1.6A3.767,3.767,0,0,0,0,82.855v22.922a3.767,3.767,0,0,0,3.763,3.763H41.446a3.767,3.767,0,0,0,3.763-3.763v-1.845h1.6a3.767,3.767,0,0,0,3.762-3.764V77.248a3.767,3.767,0,0,0-3.762-3.764ZM3.763,81.068H41.446a1.789,1.789,0,0,1,1.787,1.787V84.7H1.975V82.855a1.789,1.789,0,0,1,1.787-1.787Zm-1.787,5.61H43.233V91.5H1.975Zm39.47,20.886H3.763a1.789,1.789,0,0,1-1.787-1.787v-12.3H43.233v12.3A1.789,1.789,0,0,1,41.446,107.564Zm7.151-7.4a1.789,1.789,0,0,1-1.786,1.789h-1.6v-19.1a3.767,3.767,0,0,0-3.763-3.763H7.339V77.248a1.789,1.789,0,0,1,1.786-1.789H46.81A1.789,1.789,0,0,1,48.6,77.248v22.919Z" fill="#fff"/>
    <path id="Path_22013" data-name="Path 22013" d="M116.7,319.232l-.011-.027a1.106,1.106,0,0,0-1.027-.688h0a1.106,1.106,0,0,0-1.027.69l-.009.023-2.029,5.333a.988.988,0,1,0,1.846.7l.263-.692h1.9l.26.689a.988.988,0,1,0,1.848-.7Zm-1.242,3.366.2-.528.2.528Z" transform="translate(-101.415 -220.83)" fill="#fff" stroke="#6d2d57" stroke-width="1"/>
    <path id="Path_22014" data-name="Path 22014" d="M189.314,318.517h-.01a.988.988,0,0,0-.978,1l.022,2.277-1.958-2.838a.988.988,0,0,0-1.8.561v5.4a.988.988,0,1,0,1.975,0v-2.228l1.847,2.677a1.066,1.066,0,0,0,1.193.431,1.1,1.1,0,0,0,.747-1.072l-.05-5.227a.988.988,0,0,0-.987-.978Z" transform="translate(-166.357 -220.83)" fill="#fff" stroke="#6d2d57" stroke-width="1"/>
    <path id="Path_22015" data-name="Path 22015" d="M257.041,324.2l-2.172-2.1,1.963-1.806a.988.988,0,0,0-1.338-1.454L254.243,320V319.5a.988.988,0,1,0-1.975,0v5.409a.988.988,0,0,0,1.975,0v-.666l1.425,1.376a.988.988,0,1,0,1.372-1.421Z" transform="translate(-227.351 -220.829)" fill="#fff" stroke="#6d2d57" stroke-width="1"/>
    <path id="Path_22016" data-name="Path 22016" d="M57.578,320.749a2.234,2.234,0,0,0-2.231-2.232h-1.57a.988.988,0,0,0-.988.988v5.409a.988.988,0,0,0,.988.988h0s1.442-.006,1.84-.006a2.443,2.443,0,0,0,1.731-4.166,2.22,2.22,0,0,0,.226-.98Zm-2.813-.257h.582a.257.257,0,0,1,0,.514h-.582Zm.856,3.427-.856,0v-.939h.856a.468.468,0,0,1,0,.937Z" transform="translate(-47.575 -220.83)" fill="#fff" stroke="#6d2d57" stroke-width="1"/>
    <path id="Path_22017" data-name="Path 22017" d="M329.569,318.517h-6.279a.988.988,0,0,0-.988.988v5.409a.988.988,0,0,0,.988.988h6.279a.988.988,0,0,0,.988-.988V319.5a.988.988,0,0,0-.988-.988Zm-.988,5.409h-4.3v-3.434h4.3Z" transform="translate(-290.468 -220.83)" fill="#fff"/>
  </g>
</svg>
