<svg xmlns="http://www.w3.org/2000/svg" width="60" height="60" viewBox="0 0 60 60">
  <g id="channel-icn" transform="translate(-670 -261)">
    <rect id="Rectangle_3895" data-name="Rectangle 3895" width="60" height="60" rx="10" transform="translate(670 261)" fill="#0d4fa3"/>
    <path id="Path_22025" data-name="Path 22025" d="M36.219,23.9a4.02,4.02,0,0,0-2.936,1.236l-3.438-2.009a6.325,6.325,0,0,0,0-4.558l3.438-2.009A4.02,4.02,0,0,0,36.219,17.8a4.076,4.076,0,1,0-4.095-4.056,4.87,4.87,0,0,0,.155,1.082L28.8,16.832a6.244,6.244,0,0,0-3.94-2.279V10.535a4.095,4.095,0,1,0-2.009,0v4.018a6.419,6.419,0,0,0-3.94,2.279l-3.477-2.009a3.49,3.49,0,0,0,.155-1.082A4.095,4.095,0,0,0,7.4,13.7,4.122,4.122,0,0,0,11.495,17.8a4.02,4.02,0,0,0,2.936-1.236l3.438,2.009a6.325,6.325,0,0,0,0,4.558l-3.438,2.009A4.02,4.02,0,0,0,11.495,23.9a4.076,4.076,0,1,0,4.095,4.056,4.87,4.87,0,0,0-.155-1.082l3.477-2.009a6.244,6.244,0,0,0,3.94,2.279v4.018a4.095,4.095,0,1,0,2.009,0V27.147a6.419,6.419,0,0,0,3.94-2.279l3.477,2.009a3.333,3.333,0,0,0-.155,1.082,4.072,4.072,0,0,0,4.095,4.095,4.076,4.076,0,1,0,0-8.151Zm0-12.285A2.086,2.086,0,1,1,34.133,13.7,2.077,2.077,0,0,1,36.219,11.617ZM11.495,15.789A2.086,2.086,0,1,1,13.581,13.7,2.077,2.077,0,0,1,11.495,15.789Zm0,14.293A2.086,2.086,0,1,1,13.581,28,2.077,2.077,0,0,1,11.495,30.082ZM21.771,6.595a2.086,2.086,0,1,1,2.086,2.086A2.077,2.077,0,0,1,21.771,6.595ZM25.943,35.1a2.086,2.086,0,1,1-2.086-2.086A2.077,2.077,0,0,1,25.943,35.1Zm-2.086-9.851a4.4,4.4,0,1,1,4.4-4.4A4.4,4.4,0,0,1,23.857,25.254Zm12.362,4.829A2.086,2.086,0,1,1,38.3,28,2.1,2.1,0,0,1,36.219,30.082Z" transform="translate(677 270)" fill="#fff"/>
  </g>
</svg>
