<?xml version="1.0" standalone="no"?>
<!DOCTYPE svg PUBLIC "-//W3C//DTD SVG 20010904//EN"
 "http://www.w3.org/TR/2001/REC-SVG-20010904/DTD/svg10.dtd">
<svg version="1.0" xmlns="http://www.w3.org/2000/svg"
 width="100.000000pt" height="114.000000pt" viewBox="0 0 100.000000 114.000000"
 preserveAspectRatio="xMidYMid meet">
<metadata>
Created by potrace 1.16, written by Peter Selinger 2001-2019
</metadata>
<g transform="translate(0.000000,114.000000) scale(0.100000,-0.100000)"
fill="#000000" stroke="none">
<path d="M532 1037 c-56 -56 -102 -107 -102 -112 0 -11 201 -215 212 -215 5 0
8 32 8 70 l0 70 43 0 c33 0 49 -6 65 -23 21 -23 22 -31 22 -254 l0 -231 -30
-32 c-73 -78 -36 -205 70 -239 58 -18 137 15 166 70 7 15 14 51 14 78 0 42 -5
56 -30 84 l-30 35 0 220 c0 234 -8 301 -43 354 -33 49 -117 88 -189 88 l-58 0
0 70 c0 39 -3 70 -8 70 -4 0 -53 -46 -110 -103z"/>
<path d="M80 1042 c-19 -9 -45 -32 -57 -51 -39 -58 -26 -157 26 -193 19 -13
20 -30 23 -279 3 -260 3 -264 27 -300 43 -62 119 -99 209 -99 l42 0 0 -60 c0
-51 3 -60 18 -60 9 0 61 44 114 97 l97 98 -111 113 c-61 61 -113 112 -115 112
-1 0 -3 -34 -3 -75 l0 -75 -40 0 c-30 0 -47 7 -65 25 l-25 24 0 233 c0 216 1
234 18 245 26 16 52 74 52 118 0 52 -24 90 -73 120 -51 29 -89 32 -137 7z"/>
</g>
</svg>
