<svg xmlns="http://www.w3.org/2000/svg" width="132.025" height="156.7" viewBox="0 0 132.025 156.7">
  <g id="congo-icn" transform="translate(0)">
    <path id="Path_336" data-name="Path 336" d="M407.553,235.446a5.38,5.38,0,0,0-4.92-3.292H304.425a5.326,5.326,0,0,0-5.324,5.324V361.72a5.326,5.326,0,0,0,5.324,5.324h98.212a5.331,5.331,0,0,0,5.324-5.324V237.477a5.229,5.229,0,0,0-.4-2.032Zm-.779,126.274a4.146,4.146,0,0,1-4.141,4.141H304.425a4.142,4.142,0,0,1-4.141-4.14V237.478a4.147,4.147,0,0,1,4.141-4.141h98.212a4.162,4.162,0,0,1,3.844,2.605,4.6,4.6,0,0,1,.156.467,4.107,4.107,0,0,1,.142,1.069Z" transform="translate(-299.101 -210.343)" fill="#3f3d56"/>
    <path id="Path_339" data-name="Path 339" d="M411.182,323.608H346.563a2.665,2.665,0,0,1-2.663-2.663V277.435a2.665,2.665,0,0,1,2.663-2.663h64.618a2.665,2.665,0,0,1,2.663,2.663v43.511A2.665,2.665,0,0,1,411.182,323.608Z" transform="translate(-325.191 -235.359)" fill="#0d4fa3"/>
    <path id="Path_341" data-name="Path 341" d="M412.208,414.243H345.354a2.367,2.367,0,1,1,0-4.733h66.854a2.367,2.367,0,1,1,0,4.733Z" transform="translate(-324.456 -312.811)" fill="#ccc"/>
    <path id="Path_342" data-name="Path 342" d="M412.208,443.667H345.354a2.367,2.367,0,1,1,0-4.733h66.854a2.367,2.367,0,1,1,0,4.733Z" transform="translate(-324.456 -329.81)" fill="#ccc"/>
    <path id="Path_343" data-name="Path 343" d="M412.208,473.091H345.354a2.367,2.367,0,1,1,0-4.733h66.854a2.367,2.367,0,1,1,0,4.733Z" transform="translate(-324.456 -346.81)" fill="#ccc"/>
    <path id="Path_344" data-name="Path 344" d="M412.208,502.515H345.354a2.367,2.367,0,1,1,0-4.733h66.854a2.367,2.367,0,1,1,0,4.733Z" transform="translate(-324.456 -363.81)" fill="#ccc"/>
    <circle id="Ellipse_44" data-name="Ellipse 44" cx="22.839" cy="22.839" r="22.839" transform="translate(86.347 0)" fill="#57b894"/>
    <path id="Path_395" data-name="Path 395" d="M541.716,231.456a2.369,2.369,0,0,1-1.425-.474l-.025-.019-5.368-4.106a2.385,2.385,0,0,1,2.9-3.786l3.477,2.666,8.215-10.718a2.384,2.384,0,0,1,3.343-.442h0l-.051.071.052-.071a2.387,2.387,0,0,1,.441,3.344l-9.663,12.6a2.386,2.386,0,0,1-1.9.93Z" transform="translate(-434.793 -199.904)" fill="#fff"/>
    <g id="noun_Image_3134330" transform="translate(31.82 40.901)">
      <g id="Group_9510" data-name="Group 9510" transform="translate(5 9)">
        <path id="Path_3642" data-name="Path 3642" d="M32.868,9H10.911A5.911,5.911,0,0,0,5,14.911v15.2a5.911,5.911,0,0,0,5.911,5.911H32.868a5.911,5.911,0,0,0,5.911-5.911v-15.2A5.911,5.911,0,0,0,32.868,9ZM6.689,14.911a4.222,4.222,0,0,1,4.222-4.222H32.868a4.222,4.222,0,0,1,4.222,4.222V28.938l-7.845-7.871a.844.844,0,0,0-.6-.245h0a.844.844,0,0,0-.6.245l-8.69,8.7-5.312-5.32a.844.844,0,0,0-1.2,0L6.731,30.56a4.011,4.011,0,0,1-.042-.448ZM32.868,34.334H10.911a4.222,4.222,0,0,1-3.572-1.993l6.106-6.106,5.312,5.32a.844.844,0,0,0,1.2,0l8.69-8.69,8.293,8.31a4.222,4.222,0,0,1-4.07,3.158Z" transform="translate(-5 -9)" fill="#fff"/>
        <path id="Path_3643" data-name="Path 3643" d="M18.378,21.756A3.378,3.378,0,1,0,15,18.378,3.378,3.378,0,0,0,18.378,21.756Zm0-5.067a1.689,1.689,0,1,1-1.689,1.689A1.689,1.689,0,0,1,18.378,16.689Z" transform="translate(-6.555 -9.933)" fill="#fff"/>
      </g>
    </g>
  </g>
</svg>
