<svg xmlns="http://www.w3.org/2000/svg" width="13.464" height="15.113" viewBox="0 0 13.464 15.113">
  <g id="Delete_icon" transform="translate(0.1 0.1)">
    <path id="Path_1274" data-name="Path 1274" d="M39.75,2.146h-3.1V1.64A1.642,1.642,0,0,0,35.007,0h-2.95a1.642,1.642,0,0,0-1.64,1.64v.506h-3.1a.414.414,0,1,0,0,.828h.748V12.7a2.217,2.217,0,0,0,2.214,2.214h6.512A2.217,2.217,0,0,0,39,12.7V2.974h.748a.414.414,0,0,0,0-.828ZM31.245,1.64a.814.814,0,0,1,.812-.812h2.95a.814.814,0,0,1,.812.812v.506H31.245ZM38.174,12.7a1.388,1.388,0,0,1-1.386,1.386H30.276A1.388,1.388,0,0,1,28.89,12.7V2.974h9.287V12.7Z" transform="translate(-26.9 0)" fill="#f2452a" stroke="#f2452a" stroke-width="0.2"/>
    <path id="Path_1275" data-name="Path 1275" d="M230.114,153.543a.412.412,0,0,0,.414-.414v-7.316a.414.414,0,1,0-.828,0v7.312A.415.415,0,0,0,230.114,153.543Z" transform="translate(-223.482 -140.942)" fill="#f2452a" stroke="#f2452a" stroke-width="0.2"/>
    <path id="Path_1276" data-name="Path 1276" d="M142.014,167.433a.412.412,0,0,0,.414-.414v-6.4a.414.414,0,0,0-.828,0v6.4A.414.414,0,0,0,142.014,167.433Z" transform="translate(-138.083 -155.288)" fill="#f2452a" stroke="#f2452a" stroke-width="0.2"/>
    <path id="Path_1277" data-name="Path 1277" d="M318.214,167.433a.412.412,0,0,0,.414-.414v-6.4a.414.414,0,0,0-.828,0v6.4A.412.412,0,0,0,318.214,167.433Z" transform="translate(-308.881 -155.288)" fill="#f2452a" stroke="#f2452a" stroke-width="0.2"/>
  </g>
</svg>
