<svg xmlns="http://www.w3.org/2000/svg" width="53" height="53" viewBox="0 0 53 53">
  <g id="Group_9486" data-name="Group 9486" transform="translate(-723 -1272)">
    <circle id="Ellipse_456" data-name="Ellipse 456" cx="26.5" cy="26.5" r="26.5" transform="translate(723 1272)" fill="#f5f8fa" opacity="0.2"/>
    <g id="noun_Email_205162" transform="translate(735.554 1284.069)">
      <path id="Path_2524" data-name="Path 2524" d="M5.772,5H22.12a3.767,3.767,0,0,1,3.772,3.772V20.09a3.767,3.767,0,0,1-3.772,3.772H5.772A3.767,3.767,0,0,1,2,20.09V8.772A3.767,3.767,0,0,1,5.772,5m0,1.257a2.392,2.392,0,0,0-1.61.591l9.783,6.325,9.783-6.325a2.392,2.392,0,0,0-1.61-.591H5.772M13.946,14.7,3.421,7.867a2.688,2.688,0,0,0-.163.905V20.09A2.522,2.522,0,0,0,5.772,22.6H22.12a2.522,2.522,0,0,0,2.515-2.515V8.772a2.688,2.688,0,0,0-.163-.905Z" transform="translate(0 0)" fill="#fff"/>
    </g>
  </g>
</svg>
