<svg id="get-money" xmlns="http://www.w3.org/2000/svg" width="35.737" height="37.106" viewBox="0 0 35.737 37.106">
  <g id="Group_9328" data-name="Group 9328" transform="translate(0 19.719)">
    <g id="Group_9327" data-name="Group 9327" transform="translate(0)">
      <path id="Path_20279" data-name="Path 20279" d="M44.3,266.488a.424.424,0,0,0-.06-.1,2.777,2.777,0,0,0-3.905-.4c-1.5,1.22-3.673,2.978-5.087,4.122a5.913,5.913,0,0,1-3.5,1.3l-3.83.127a.432.432,0,0,1-.382-.2l-.426-.733a.4.4,0,0,1-.022-.389.416.416,0,0,1,.307-.239l3.957-.748a2.756,2.756,0,0,0,2.207-3.007,2.706,2.706,0,0,0-2.693-2.409h-.135l-5.289-.217a12.1,12.1,0,0,0-6.037,1.354l-2.768,1.339a2.334,2.334,0,0,0-2.1-1.324h-3.06a2.315,2.315,0,0,0-2.327,2.3v11.394a2.326,2.326,0,0,0,2.327,2.312h3.06a2.32,2.32,0,0,0,2.319-2.312v-.77l2.94-.539a11.525,11.525,0,0,1,2.559-.15l8.042.374a11.609,11.609,0,0,0,7.952-2.686l5.573-4.623.007-.007A2.738,2.738,0,0,0,44.3,266.488ZM15.357,278.659a.817.817,0,0,1-.815.815H11.46a.817.817,0,0,1-.815-.815V267.273a.817.817,0,0,1,.815-.816h3.082a.817.817,0,0,1,.815.816Zm27.605-9.546L37.4,273.729a10.169,10.169,0,0,1-6.935,2.341l-8.042-.374a13.235,13.235,0,0,0-2.858.165.028.028,0,0,0-.022.007l-2.686.494v-8.528l3.2-1.549a10.653,10.653,0,0,1,5.327-1.2l5.327.217h.157a1.233,1.233,0,0,1,1.212,1.077,1.252,1.252,0,0,1-.995,1.369l-3.957.748a1.922,1.922,0,0,0-1.526,2.244,1.962,1.962,0,0,0,.232.613l.426.726a1.925,1.925,0,0,0,1.721.942l3.83-.127A7.509,7.509,0,0,0,36.2,271.26c1.414-1.145,3.6-2.9,5.095-4.122a1.3,1.3,0,0,1,1.766.157.624.624,0,0,0,.06.09A1.238,1.238,0,0,1,42.962,269.113Z" transform="translate(-9.148 -263.584)" fill="#0f3d94"/>
    </g>
  </g>
  <g id="Group_9330" data-name="Group 9330" transform="translate(14.027)">
    <g id="Group_9329" data-name="Group 9329">
      <path id="Path_20280" data-name="Path 20280" d="M206.433,0a9.789,9.789,0,1,0,9.785,9.793A9.8,9.8,0,0,0,206.433,0Zm.008,18.082a8.3,8.3,0,0,1-8.3-8.289V9.785a8.293,8.293,0,1,1,8.3,8.3Z" transform="translate(-196.648)" fill="#0f3d94"/>
    </g>
  </g>
  <g id="Group_9332" data-name="Group 9332" transform="translate(20.139 4.937)">
    <g id="Group_9331" data-name="Group 9331" transform="translate(0)">
      <path id="Path_20281" data-name="Path 20281" d="M284.945,68.544h-1a3.137,3.137,0,0,0-.434-1.047h1.436a.748.748,0,0,0,0-1.5h-5.85a.748.748,0,1,0,0,1.5h1.676a1.788,1.788,0,0,1,1.593,1.047h-3.269a.748.748,0,1,0,0,1.5h3.269a2.376,2.376,0,0,1-.344.471,1.747,1.747,0,0,1-1.249.5h-1.676a.754.754,0,0,0-.748.763.772.772,0,0,0,.232.539l4.182,3.957a.746.746,0,1,0,1.025-1.085l-2.82-2.671a3.225,3.225,0,0,0,2.1-.935,3.35,3.35,0,0,0,.875-1.541h1a.748.748,0,0,0,0-1.5Z" transform="translate(-278.346 -66)" fill="#0f3d94"/>
    </g>
  </g>
</svg>
