<svg xmlns="http://www.w3.org/2000/svg" xmlns:xlink="http://www.w3.org/1999/xlink" width="112.305" height="76.5" viewBox="0 0 112.305 76.5">
  <defs>
    <linearGradient id="linear-gradient" x1="0.984" y1="0.927" x2="0.036" y2="0.258" gradientUnits="objectBoundingBox">
      <stop offset="0" stop-color="#1a50b1"/>
      <stop offset="1" stop-color="#a01922"/>
    </linearGradient>
  </defs>
  <g id="Group_9297" data-name="Group 9297" transform="translate(-138 -2374)" opacity="0.77">
    <g id="truck" transform="translate(138 2374)">
      <path id="Path_2428" data-name="Path 2428" d="M40.614,51.14H31.429a1.836,1.836,0,0,0-1.715,1.165L25.122,64.117a1.8,1.8,0,0,0,.2,1.681,1.843,1.843,0,0,0,1.514.788H40.614a1.827,1.827,0,0,0,1.837-1.817V52.957a1.827,1.827,0,0,0-1.837-1.817ZM38.777,62.952H29.511l3.179-8.177h6.086Z" transform="translate(-3.244 -24.228)" fill="url(#linear-gradient)"/>
      <path id="Path_2429" data-name="Path 2429" d="M25.2,90.215A9.086,9.086,0,1,0,34.387,99.3,9.086,9.086,0,0,0,25.2,90.215Zm0,14.537A5.452,5.452,0,1,1,30.713,99.3a5.452,5.452,0,0,1-5.511,5.451Z" transform="translate(-1.322 -31.888)" fill="url(#linear-gradient)"/>
      <path id="Path_2430" data-name="Path 2430" d="M100.185,108.387A9.086,9.086,0,1,0,91,99.3,9.086,9.086,0,0,0,100.185,108.387Zm0-14.537A5.452,5.452,0,1,1,94.674,99.3a5.452,5.452,0,0,1,5.511-5.452Z" transform="translate(-12.679 -31.888)" fill="url(#linear-gradient)"/>
      <path id="Path_2431" data-name="Path 2431" d="M111.045,40.072,67.178,28.087l-1.465-4.082a1.7,1.7,0,0,0-1.183-1.052l-18.425-4.89a1.833,1.833,0,0,0-1.832.526,1.539,1.539,0,0,0-.219,1.77L49.133,29.8V56.307A1.671,1.671,0,0,0,50.6,57.914l5.264.815a1.868,1.868,0,0,0,.94-.094l3.818-1.419,7.035,1.961L58.643,73.83H45.624V43.674a5.094,5.094,0,0,0-5.264-4.89H25.973a5.3,5.3,0,0,0-4.813,2.909L14.689,55.258A23.412,23.412,0,0,0,1.46,59.169,3.191,3.191,0,0,0,0,61.816V83.61a3.4,3.4,0,0,0,3.51,3.26H8.774a1.7,1.7,0,0,0,1.755-1.63c0-6.17,5.4-11,12.283-11,6.828.163,12.276,5.4,12.283,11.818a1.7,1.7,0,0,0,1.755,1.63h38.6a1.7,1.7,0,0,0,1.755-1.63,11.046,11.046,0,0,1,5.106-9.239A12.134,12.134,0,0,1,94.9,76.8l.042.026a10.4,10.4,0,0,1,5.082,8.817,1.7,1.7,0,0,0,1.755,1.63h8.774a1.7,1.7,0,0,0,1.755-1.63V75.46a1.7,1.7,0,0,0-1.755-1.63h-4.137L112.28,41.91a1.629,1.629,0,0,0-1.235-1.838ZM3.5,66.494H5.264a1.633,1.633,0,1,1,0,3.26H3.5Zm38.612,17.93H38.508c-.883-7.44-7.712-13.448-15.7-13.448-8.244,0-14.826,5.43-15.7,12.633H3.509l0-10.6H5.264a4.9,4.9,0,1,0,0-9.781H3.5V61.822A20.306,20.306,0,0,1,12.308,58.6h3.485a1.813,1.813,0,0,0,1.619-1l6.957-14.583a1.766,1.766,0,0,1,1.6-.969H40.359a1.7,1.7,0,0,1,1.755,1.63ZM71.107,60.138l2.542.708L65.662,73.83H62.685ZM73.8,84.425H45.624V77.09H76.985A14.465,14.465,0,0,0,73.8,84.425Zm22.6-10.6a15.861,15.861,0,0,0-15.554,0H69.7L77.1,61.808,94.258,66.59l2.6,7.24Zm12.393,3.26v6.928h-5.367a13.306,13.306,0,0,0-3.08-6.928Zm-1.338-28.313L63.666,36.812a1.78,1.78,0,0,0-2.179,1.1,1.54,1.54,0,0,0,.145,1.244,1.719,1.719,0,0,0,1.043.78l44.186,12.072-.874,4.753-43.2-11.8a1.78,1.78,0,0,0-2.179,1.1,1.54,1.54,0,0,0,.145,1.244,1.719,1.719,0,0,0,1.043.78L105.394,60l-2.467,13.421h-2.519L97.3,64.756a1.7,1.7,0,0,0-1.161-1.046l-35.1-9.78a1.882,1.882,0,0,0-1.156.048l-3.931,1.461-3.314-.513V29.411a1.538,1.538,0,0,0-.185-.729l-3.48-6.466,13.7,3.636,1.462,4.074a1.7,1.7,0,0,0,1.17,1.049l43.249,11.816Z" transform="translate(0 -18)" fill="url(#linear-gradient)"/>
    </g>
  </g>
</svg>
