<svg xmlns="http://www.w3.org/2000/svg" width="31.059" height="37.46" viewBox="0 0 31.059 37.46">
  <g id="Group_10596" data-name="Group 10596" transform="translate(-44.444 0.5)">
    <g id="Group_10583" data-name="Group 10583" transform="translate(44.944)">
      <g id="Group_10582" data-name="Group 10582" transform="translate(0)">
        <path id="Path_22005" data-name="Path 22005" d="M74.785,9.034,65.969.218A.744.744,0,0,0,65.443,0H48.56a3.62,3.62,0,0,0-3.616,3.616V32.844A3.62,3.62,0,0,0,48.56,36.46H71.387A3.62,3.62,0,0,0,75,32.844V9.56A.745.745,0,0,0,74.785,9.034Zm-8.6-6.493,6.276,6.276H68.315a2.128,2.128,0,0,1-2.128-2.128Zm7.328,30.3a2.13,2.13,0,0,1-2.128,2.128H48.56a2.131,2.131,0,0,1-2.128-2.128V3.616A2.131,2.131,0,0,1,48.56,1.488H64.7v5.2A3.616,3.616,0,0,0,68.315,10.3h5.2V32.844Z" transform="translate(-44.944)" fill="#fff" stroke="#fff" stroke-width="1"/>
      </g>
    </g>
    <g id="Group_10585" data-name="Group 10585" transform="translate(48.846 23.975)">
      <g id="Group_10584" data-name="Group 10584">
        <path id="Path_22006" data-name="Path 22006" d="M133.739,303.745h-.333a.744.744,0,1,0,0,1.488h.333a.744.744,0,1,0,0-1.488Z" transform="translate(-132.662 -303.745)" fill="#fff" stroke="#fff" stroke-width="1"/>
      </g>
    </g>
    <g id="Group_10587" data-name="Group 10587" transform="translate(53.931 23.975)">
      <g id="Group_10586" data-name="Group 10586">
        <path id="Path_22007" data-name="Path 22007" d="M185.226,303.745H171.888a.744.744,0,1,0,0,1.488h13.338a.744.744,0,1,0,0-1.488Z" transform="translate(-171.144 -303.745)" fill="#fff" stroke="#fff" stroke-width="1"/>
      </g>
    </g>
    <g id="Group_10589" data-name="Group 10589" transform="translate(48.846 19.793)">
      <g id="Group_10588" data-name="Group 10588">
        <path id="Path_22008" data-name="Path 22008" d="M133.739,256h-.333a.744.744,0,0,0,0,1.488h.333a.744.744,0,0,0,0-1.488Z" transform="translate(-132.662 -256)" fill="#fff" stroke="#fff" stroke-width="1"/>
      </g>
    </g>
    <g id="Group_10591" data-name="Group 10591" transform="translate(53.931 19.793)">
      <g id="Group_10590" data-name="Group 10590">
        <path id="Path_22009" data-name="Path 22009" d="M185.226,256H171.888a.744.744,0,0,0,0,1.488h13.338a.744.744,0,1,0,0-1.488Z" transform="translate(-171.144 -256)" fill="#fff" stroke="#fff" stroke-width="1"/>
      </g>
    </g>
    <g id="Group_10593" data-name="Group 10593" transform="translate(48.846 14.83)">
      <g id="Group_10592" data-name="Group 10592">
        <path id="Path_22010" data-name="Path 22010" d="M133.739,208.255h-.333a.744.744,0,1,0,0,1.488h.333a.744.744,0,1,0,0-1.488Z" transform="translate(-132.662 -208.255)" fill="#fff" stroke="#fff" stroke-width="1"/>
      </g>
    </g>
    <g id="Group_10595" data-name="Group 10595" transform="translate(53.931 14.83)">
      <g id="Group_10594" data-name="Group 10594">
        <path id="Path_22011" data-name="Path 22011" d="M185.226,208.255H171.888a.744.744,0,1,0,0,1.488h13.338a.744.744,0,1,0,0-1.488Z" transform="translate(-171.144 -208.255)" fill="#fff" stroke="#fff" stroke-width="1"/>
      </g>
    </g>
  </g>
</svg>
