<svg xmlns="http://www.w3.org/2000/svg" width="28.078" height="24.253" viewBox="0 0 28.078 24.253">
  <g id="noun_Heart_2518721" transform="translate(0)">
    <path id="Path_1898" data-name="Path 1898" d="M11.939,3.66a7.76,7.76,0,0,0-7.747,7.747,10.856,10.856,0,0,0,2.949,7.5c2.991,3.49,10.356,8.652,10.677,8.877a.711.711,0,0,0,.826,0c.321-.226,7.685-5.386,10.677-8.877a10.856,10.856,0,0,0,2.949-7.5A7.739,7.739,0,0,0,19.328,5.671a7.7,7.7,0,0,0-1.1,1.314,7.705,7.705,0,0,0-1.1-1.315,7.733,7.733,0,0,0-5.2-2.009Z" transform="translate(-4.192 -3.66)" fill="#b1b1b1"/>
  </g>
</svg>
