<svg xmlns="http://www.w3.org/2000/svg" xmlns:xlink="http://www.w3.org/1999/xlink" width="102" height="102" viewBox="0 0 102 102">
  <defs>
    <linearGradient id="linear-gradient" x1="0.5" x2="0.5" y2="1" gradientUnits="objectBoundingBox">
      <stop offset="0" stop-color="#1551b5"/>
      <stop offset="1" stop-color="#a4181e"/>
    </linearGradient>
  </defs>
  <g id="Group_9432" data-name="Group 9432" transform="translate(-3756 -7167)">
    <circle id="Ellipse_466" data-name="Ellipse 466" cx="51" cy="51" r="51" transform="translate(3756 7167)" fill="url(#linear-gradient)"/>
    <g id="noun_order_2046093" transform="translate(3719.422 7116.815)">
      <g id="Group_9446" data-name="Group 9446" transform="translate(67.578 81.185)">
        <g id="Group_9437" data-name="Group 9437" transform="translate(0 7.65)">
          <g id="Group_9436" data-name="Group 9436">
            <path id="Path_3623" data-name="Path 3623" d="M88.323,278.78l-1.931-.849q-2.314-1.02-4.633-2.04-2.786-1.232-5.578-2.46-2.424-1.068-4.843-2.132c-.78-.342-1.552-.73-2.346-1.036a.23.23,0,0,1-.032-.014c.151.265.3.525.452.79v-18.7c0-.863.037-1.734,0-2.6v-.037c-.456.265-.917.525-1.374.79l1.931.849q2.314,1.02,4.633,2.04,2.786,1.232,5.578,2.46,2.424,1.068,4.843,2.132c.78.342,1.552.73,2.346,1.036a.226.226,0,0,1,.032.014c-.151-.265-.3-.525-.452-.79v18.7c0,.867-.023,1.734,0,2.6v.036a.913.913,0,1,0,1.826,0v-18.7c0-.867.023-1.734,0-2.6v-.037a.9.9,0,0,0-.452-.79l-1.931-.849q-2.314-1.02-4.633-2.04-2.786-1.232-5.578-2.46-2.424-1.068-4.843-2.132c-.78-.347-1.566-.694-2.346-1.036l-.032-.014a.959.959,0,0,0-.922,0,.92.92,0,0,0-.452.79v18.7c0,.867-.023,1.734,0,2.6v.036a.9.9,0,0,0,.452.79l1.931.849q2.314,1.02,4.633,2.04,2.786,1.232,5.578,2.46,2.424,1.068,4.843,2.132c.78.347,1.566.694,2.346,1.036l.032.014a.941.941,0,0,0,1.251-.329A.925.925,0,0,0,88.323,278.78Z" transform="translate(-67.578 -248.802)" fill="#fff" stroke="#fff" stroke-width="0.6"/>
          </g>
        </g>
        <g id="Group_9439" data-name="Group 9439" transform="translate(19.362 7.65)">
          <g id="Group_9438" data-name="Group 9438">
            <path id="Path_3624" data-name="Path 3624" d="M511.6,270.249l-1.931.849q-2.314,1.02-4.633,2.04-2.786,1.232-5.578,2.46-2.424,1.068-4.843,2.131c-.781.342-1.579.662-2.346,1.036l-.032.014c.456.265.917.525,1.374.79v-18.7c0-.863.037-1.734,0-2.6v-.036c-.151.265-.3.525-.452.79l1.931-.849q2.314-1.02,4.633-2.04,2.786-1.232,5.578-2.46,2.424-1.068,4.843-2.132c.781-.342,1.579-.662,2.346-1.036l.032-.014c-.456-.265-.917-.525-1.374-.79v18.7c0,.867-.023,1.734,0,2.6v.036a.913.913,0,1,0,1.826,0v-18.7c0-.867.023-1.734,0-2.6v-.036a.92.92,0,0,0-.452-.79.959.959,0,0,0-.922,0l-1.931.849q-2.314,1.02-4.633,2.04-2.786,1.232-5.578,2.46-2.424,1.068-4.843,2.132c-.781.342-1.584.653-2.346,1.036l-.032.014a.894.894,0,0,0-.452.79v18.7c0,.867-.023,1.734,0,2.6v.037a.92.92,0,0,0,.452.79.959.959,0,0,0,.922,0l1.931-.849q2.314-1.02,4.633-2.04,2.786-1.232,5.578-2.46,2.424-1.068,4.843-2.132c.781-.342,1.584-.653,2.346-1.036l.032-.014a.917.917,0,0,0,.329-1.251A.942.942,0,0,0,511.6,270.249Z" transform="translate(-491.778 -248.802)" fill="#fff" stroke="#fff" stroke-width="0.6"/>
          </g>
        </g>
        <g id="Group_9441" data-name="Group 9441" transform="translate(0.021 0)">
          <g id="Group_9440" data-name="Group 9440">
            <path id="Path_3625" data-name="Path 3625" d="M107.193,88.954l-1.931.849q-2.314,1.02-4.633,2.04-2.786,1.232-5.578,2.46-2.424,1.068-4.843,2.132c-.78.342-1.579.666-2.346,1.036l-.032.014h.922l-1.931-.849q-2.314-1.02-4.633-2.04-2.786-1.232-5.578-2.46Q74.189,91.067,71.77,90c-.78-.342-1.552-.721-2.346-1.036a.222.222,0,0,1-.032-.014l-.219,1.671c.644-.256,1.287-.507,1.931-.762q2.307-.911,4.619-1.826l5.587-2.2q2.424-.958,4.847-1.912c.529-.21,1.059-.415,1.584-.625.251-.1.516-.187.758-.3l.032-.014h-.484c.644.256,1.287.507,1.931.762q2.307.911,4.619,1.826l5.587,2.2q2.424.958,4.847,1.912c.78.306,1.552.657,2.346.927l.032.014a.912.912,0,0,0,1.123-.639.939.939,0,0,0-.639-1.123c-.644-.256-1.287-.507-1.931-.762q-2.321-.917-4.637-1.83-2.8-1.109-5.6-2.214Q93.3,83.1,90.885,82.149c-.771-.306-1.538-.653-2.323-.917a1.033,1.033,0,0,0-.808.1c-.4.16-.8.319-1.2.475l-4.373,1.725-5.578,2.2q-2.519.993-5.034,1.99c-.917.361-1.835.726-2.748,1.086-.041.018-.082.032-.128.05a.931.931,0,0,0-.653.758.893.893,0,0,0,.434.908c.648.283,1.3.571,1.94.854l4.656,2.054q2.8,1.232,5.6,2.469,2.41,1.061,4.824,2.127c.771.338,1.543.685,2.314,1.018a1.112,1.112,0,0,0,.977,0l.251-.11,1.2-.529q2.184-.965,4.373-1.926,2.786-1.226,5.573-2.456,2.526-1.116,5.053-2.227c.922-.406,1.839-.812,2.761-1.214.041-.018.082-.037.128-.055a.917.917,0,0,0,.329-1.251A.946.946,0,0,0,107.193,88.954Z" transform="translate(-68.029 -81.185)" fill="#fff" stroke="#fff" stroke-width="0.6"/>
          </g>
        </g>
        <g id="Group_9443" data-name="Group 9443" transform="translate(29.514 11.662)">
          <g id="Group_9442" data-name="Group 9442">
            <path id="Path_3626" data-name="Path 3626" d="M714.2,337.6v5.947a.913.913,0,0,0,1.826,0V337.6a.913.913,0,1,0-1.826,0Z" transform="translate(-714.2 -336.682)" fill="#fff" stroke="#fff" stroke-width="0.6"/>
          </g>
        </g>
        <g id="Group_9445" data-name="Group 9445" transform="translate(10.157 3.678)">
          <g id="Group_9444" data-name="Group 9444">
            <path id="Path_3627" data-name="Path 3627" d="M290.774,163.58l1.926.794,4.624,1.9,5.6,2.3q2.417.993,4.838,1.99c.78.319,1.556.685,2.351.968l.032.014a.914.914,0,0,0,1.123-.639.941.941,0,0,0-.639-1.123l-1.926-.794-4.624-1.9-5.6-2.3q-2.417-.993-4.838-1.99c-.78-.32-1.556-.685-2.351-.968l-.032-.014a.914.914,0,0,0-1.123.639.943.943,0,0,0,.639,1.123Z" transform="translate(-290.108 -161.772)" fill="#fff" stroke="#fff" stroke-width="0.6"/>
          </g>
        </g>
      </g>
    </g>
  </g>
</svg>
