<svg xmlns="http://www.w3.org/2000/svg" width="13.349" height="9.365" viewBox="0 0 13.349 9.365">
  <g id="Group_337" data-name="Group 337" transform="translate(0.3 0.3)">
    <path id="Path_237" data-name="Path 237" d="M4.379,0A6.458,6.458,0,0,0,.063,1.743a.207.207,0,0,0-.014.282.207.207,0,0,0,.282.014A6.058,6.058,0,0,1,4.379.4h.006a6.058,6.058,0,0,1,4.049,1.64.2.2,0,1,0,.268-.3A6.458,6.458,0,0,0,4.385,0ZM4.322,1.892A5.018,5.018,0,0,0,.956,3.34a.2.2,0,1,0,.274.289A4.615,4.615,0,0,1,4.353,2.291h.064A4.616,4.616,0,0,1,7.534,3.629a.2.2,0,1,0,.274-.289A5.021,5.021,0,0,0,4.452,1.893Zm.06,1.892a2.374,2.374,0,0,0-1.956.98.2.2,0,1,0,.324.227,1.973,1.973,0,0,1,1.632-.809,1.973,1.973,0,0,1,1.632.809.2.2,0,1,0,.324-.227A2.374,2.374,0,0,0,4.382,3.785Zm.012,1.793a.8.8,0,1,0,0,1.594.8.8,0,0,0,0-1.594Zm0,.4a.382.382,0,0,1,.386.4.388.388,0,0,1-.386.4.415.415,0,0,1-.411-.4A.409.409,0,0,1,4.395,5.976Z" transform="translate(0 8.765) rotate(-90)" fill="#fff" stroke="#fff" stroke-width="0.6"/>
    <path id="Path_238" data-name="Path 238" d="M4.379,0A6.458,6.458,0,0,0,.063,1.743a.207.207,0,0,0-.014.282.207.207,0,0,0,.282.014A6.058,6.058,0,0,1,4.379.4h.006a6.058,6.058,0,0,1,4.049,1.64.2.2,0,1,0,.268-.3A6.458,6.458,0,0,0,4.385,0H4.379ZM4.322,1.892A5.018,5.018,0,0,0,.956,3.34a.2.2,0,1,0,.274.289A4.615,4.615,0,0,1,4.353,2.291h.064A4.616,4.616,0,0,1,7.534,3.629a.2.2,0,1,0,.274-.289A5.02,5.02,0,0,0,4.452,1.893Zm.06,1.892a2.374,2.374,0,0,0-1.956.98.2.2,0,1,0,.324.227,1.973,1.973,0,0,1,1.632-.809,1.973,1.973,0,0,1,1.632.809.2.2,0,1,0,.324-.227,2.374,2.374,0,0,0-1.956-.98Zm.012,1.793a.8.8,0,1,0,0,1.594.8.8,0,0,0,0-1.594Zm0,.4a.382.382,0,0,1,.386.4.388.388,0,0,1-.386.4.415.415,0,0,1-.411-.4A.409.409,0,0,1,4.395,5.976Z" transform="translate(12.749 0) rotate(90)" fill="#fff" stroke="#fff" stroke-width="0.6"/>
  </g>
</svg>
