<svg xmlns="http://www.w3.org/2000/svg" width="17.022" height="16.602" viewBox="0 0 17.022 16.602">
  <path id="Path_3939" data-name="Path 3939" d="M12.39,22.2a1.068,1.068,0,0,1-.4-.091.937.937,0,0,1-.547-.858v-6.2L5.274,8.9A.937.937,0,0,1,5,8.225V7.149A.942.942,0,0,1,5.949,6.2H20.473a.942.942,0,0,1,.949.949V8.225a.937.937,0,0,1-.274.675L14.981,15.05v4.762a.97.97,0,0,1-.328.712L13.01,21.947A.935.935,0,0,1,12.39,22.2ZM6.022,8.189l6.167,6.167a.937.937,0,0,1,.274.675v6.04l1.478-1.277V15.013a.937.937,0,0,1,.274-.675l6.167-6.167V7.2H6.022Z" transform="translate(-4.7 -5.9)" fill="#0d4fa3" stroke="#0d4fa3" stroke-width="0.6"/>
</svg>
