<svg xmlns="http://www.w3.org/2000/svg" width="16.652" height="17.457" viewBox="0 0 16.652 17.457">
  <g id="current_bid-bid-bidding-auction-active-loading" data-name="current bid-bid-bidding-auction-active-loading" transform="translate(0.222 0.273)">
    <path id="Path_3946" data-name="Path 3946" d="M8.573,16.655l3.261,3.608a1.281,1.281,0,0,0,2.116-1.4l1.3-1.179,6.512,7.206a1.528,1.528,0,0,0,1.063.5l.079,0a1.536,1.536,0,0,0,1.139-2.569l-6.511-7.208,1.339-1.21a1.279,1.279,0,0,0,1.6-1.961L17.21,8.843a1.28,1.28,0,0,0-2.008,1.58l-4.854,4.388a1.3,1.3,0,0,0-.763-.3,1.287,1.287,0,0,0-1.012,2.149ZM23.646,23.9a.735.735,0,0,1-.243.512.745.745,0,0,1-.533.19.735.735,0,0,1-.512-.243l-.548-.608,1.1-.99.547.606A.733.733,0,0,1,23.646,23.9Zm-1.272-1.733-1.1.99-5.428-6,1.1-.992ZM15.933,9.343a.488.488,0,0,1,.326-.126h.024a.487.487,0,0,1,.335.16l3.264,3.611a.485.485,0,1,1-.719.651L15.9,10.028A.486.486,0,0,1,15.933,9.343Zm-.208,1.683.932,1.031,1.634,1.808L17,15.032h0l-2.283,2.061h0l-1.256,1.137L10.9,15.391ZM9.2,15.429a.486.486,0,0,1,.328-.126h.017a.5.5,0,0,1,.343.163l1.9,2.1,1.365,1.511a.487.487,0,0,1-.723.653L9.165,16.12A.49.49,0,0,1,9.2,15.429Z" transform="translate(-8.24 -8.417)" fill="#0d4fa3" stroke="#0d4fa3" stroke-width="0.4"/>
  </g>
</svg>
