<svg id="noun_Download_1271962" xmlns="http://www.w3.org/2000/svg" width="16.584" height="16.002" viewBox="0 0 16.584 16.002">
  <path id="Path_3633" data-name="Path 3633" d="M32.6,13.56a.659.659,0,0,0-.66.657v8.026L28.8,19.119a.659.659,0,0,0-.933.929l4.263,4.246h0a.661.661,0,0,0,.455.184h0a.661.661,0,0,0,.455-.184h0l4.285-4.246a.659.659,0,0,0-.933-.929l-3.136,3.124V14.217A.659.659,0,0,0,32.6,13.56Z" transform="translate(-24.309 -13.56)" fill="#0d4fa3"/>
  <path id="Path_3634" data-name="Path 3634" d="M28.165,58.63a.658.658,0,0,0-.659.657v3.024a1.1,1.1,0,0,1-1.1,1.1H14.656a1.1,1.1,0,0,1-1.1-1.1V59.287a.659.659,0,0,0-1.318,0v3.024a2.413,2.413,0,0,0,2.416,2.41H26.409a2.413,2.413,0,0,0,2.416-2.41V59.287a.658.658,0,0,0-.659-.657Z" transform="translate(-12.24 -48.719)" fill="#0d4fa3"/>
</svg>
