<svg xmlns="http://www.w3.org/2000/svg" width="48.695" height="36.521" viewBox="0 0 48.695 36.521">
  <g id="Group_10581" data-name="Group 10581" transform="translate(-10 -64)">
    <g id="Group_10575" data-name="Group 10575" transform="translate(10 64)">
      <path id="Path_21999" data-name="Path 21999" d="M53.623,100.521H15.072A5.079,5.079,0,0,1,10,95.449V69.072A5.079,5.079,0,0,1,15.072,64h38.55a5.079,5.079,0,0,1,5.072,5.072V95.449A5.079,5.079,0,0,1,53.623,100.521ZM15.072,66.029a3.047,3.047,0,0,0-3.043,3.043V95.449a3.047,3.047,0,0,0,3.043,3.043h38.55a3.047,3.047,0,0,0,3.043-3.043V69.072a3.047,3.047,0,0,0-3.043-3.043Z" transform="translate(-10 -64)" fill="#fff"/>
    </g>
    <g id="Group_10576" data-name="Group 10576" transform="translate(19.194 72.116)">
      <path id="Path_22000" data-name="Path 22000" d="M111.739,159.478a5.072,5.072,0,1,1,5.072-5.072A5.079,5.079,0,0,1,111.739,159.478Zm0-8.116a3.043,3.043,0,1,0,3.043,3.043A3.047,3.047,0,0,0,111.739,151.362Z" transform="translate(-106.667 -149.333)" fill="#fff"/>
    </g>
    <g id="Group_10577" data-name="Group 10577" transform="translate(15.136 84.29)">
      <path id="Path_22001" data-name="Path 22001" d="M81.246,285.449a1.015,1.015,0,0,1-1.014-1.015v-2.029a3.047,3.047,0,0,0-3.043-3.043H69.072a3.047,3.047,0,0,0-3.043,3.043v2.029a1.014,1.014,0,1,1-2.029,0v-2.029a5.079,5.079,0,0,1,5.072-5.072h8.116a5.079,5.079,0,0,1,5.072,5.072v2.029A1.015,1.015,0,0,1,81.246,285.449Z" transform="translate(-64 -277.333)" fill="#fff"/>
    </g>
    <g id="Group_10578" data-name="Group 10578" transform="translate(37.454 74.145)">
      <path id="Path_22002" data-name="Path 22002" d="M311.855,172.7H299.681a1.014,1.014,0,0,1,0-2.029h12.174a1.014,1.014,0,1,1,0,2.029Z" transform="translate(-298.667 -170.667)" fill="#fff"/>
    </g>
    <g id="Group_10579" data-name="Group 10579" transform="translate(37.454 82.261)">
      <path id="Path_22003" data-name="Path 22003" d="M311.855,258.029H299.681a1.014,1.014,0,0,1,0-2.029h12.174a1.014,1.014,0,1,1,0,2.029Z" transform="translate(-298.667 -256)" fill="#fff"/>
    </g>
    <g id="Group_10580" data-name="Group 10580" transform="translate(37.454 90.376)">
      <path id="Path_22004" data-name="Path 22004" d="M311.855,343.362H299.681a1.014,1.014,0,0,1,0-2.029h12.174a1.014,1.014,0,1,1,0,2.029Z" transform="translate(-298.667 -341.333)" fill="#fff"/>
    </g>
  </g>
</svg>
