<svg id="Group_9394" data-name="Group 9394" xmlns="http://www.w3.org/2000/svg" xmlns:xlink="http://www.w3.org/1999/xlink" width="45.033" height="63.185" viewBox="0 0 45.033 63.185">
  <defs>
    <linearGradient id="linear-gradient" x1="0.421" y1="0.111" x2="1.327" y2="1.018" gradientUnits="objectBoundingBox">
      <stop offset="0" stop-color="#1551b5"/>
      <stop offset="1" stop-color="#a4181e"/>
    </linearGradient>
  </defs>
  <path id="Path_2506" data-name="Path 2506" d="M62.936,17.507a2.716,2.716,0,0,0-3.176-2.45,12.823,12.823,0,0,1-1.87.112c-7.591,0-14.681-7.776-14.751-7.854-1.007-1.122-1.825-1.691-2.43-1.691s-1.422.569-2.43,1.691c-.071.078-7.143,7.854-14.751,7.854a12.752,12.752,0,0,1-1.869-.112,2.521,2.521,0,0,0-3.026,2.55V51.029c0,7.241,17.944,16.335,19.99,17.349a4.663,4.663,0,0,0,2.031.431,4.715,4.715,0,0,0,2.141-.475c1.938-1.013,18.968-10.095,19.976-17.152C64.677,37.85,62.953,17.709,62.936,17.507ZM60.642,50.878C59.92,55.935,46.8,63.816,41.8,66.426a3.112,3.112,0,0,1-2.222.024c-7.266-3.6-18.793-10.966-18.793-15.421V17.607c0-.279.145-.439.4-.439a.654.654,0,0,1,.111.01,14.431,14.431,0,0,0,2.234.143c8.557,0,16.038-8.217,16.352-8.568a8.274,8.274,0,0,1,.828-.808,8.209,8.209,0,0,1,.829.808c.314.35,7.794,8.568,16.352,8.568a14.377,14.377,0,0,0,2.232-.143.556.556,0,0,1,.67.516C60.81,17.894,62.512,37.792,60.642,50.878Z" transform="translate(-18.635 -5.624)" fill="url(#linear-gradient)"/>
  <path id="Path_2507" data-name="Path 2507" d="M56.77,40.371H49.492a1.576,1.576,0,0,1-1.324-.962l-2.249-6.923c-.409-1.259-1.164-1.447-1.577-1.447s-1.169.188-1.577,1.447l-2.249,6.923a1.576,1.576,0,0,1-1.324.962H31.911c-1.323,0-1.736.659-1.864,1.053s-.182,1.169.889,1.947l5.888,4.277a1.577,1.577,0,0,1,.506,1.557l-2.249,6.921a1.938,1.938,0,0,0,.128,1.8,1.36,1.36,0,0,0,1.115.557,2.247,2.247,0,0,0,1.309-.5l5.888-4.278a1.648,1.648,0,0,1,1.638,0l5.888,4.276c.972.707,1.929.626,2.425-.054a1.939,1.939,0,0,0,.128-1.8l-2.248-6.922a1.575,1.575,0,0,1,.506-1.557l5.888-4.278c1.071-.778,1.016-1.554.888-1.947S58.094,40.371,56.77,40.371ZM50.592,45.91A3.727,3.727,0,0,0,49.3,49.871l1.779,5.479-4.66-3.384a3.816,3.816,0,0,0-4.167,0L37.6,55.351l1.78-5.479a3.729,3.729,0,0,0-1.288-3.963l-4.66-3.385H39.19a3.727,3.727,0,0,0,3.371-2.449l1.78-5.48,1.78,5.479a3.727,3.727,0,0,0,3.371,2.449h5.76Z" transform="translate(-21.842 -12.809)" fill="url(#linear-gradient)"/>
</svg>
