<svg xmlns="http://www.w3.org/2000/svg" width="54" height="54" viewBox="0 0 54 54">
  <g id="upload_ico" transform="translate(3.605 4)">
    <circle id="Ellipse_180" data-name="Ellipse 180" cx="27" cy="27" r="27" transform="translate(-3.605 -4)" fill="#0f3d94"/>
    <g id="noun_Zip_3178872" transform="translate(5.394 8)">
      <path id="Path_3636" data-name="Path 3636" d="M20.328,33.424H23.57a.4.4,0,0,0,.4-.4V31.711H19.93v1.314A.4.4,0,0,0,20.328,33.424Z" transform="translate(-6.577 -17.276)" fill="#fff"/>
      <path id="Path_3637" data-name="Path 3637" d="M36.99,50.685a.746.746,0,0,0-.447-.1h-.486v.86h.485a1.413,1.413,0,0,0,.218-.016.541.541,0,0,0,.182-.061.335.335,0,0,0,.127-.127.412.412,0,0,0,.048-.213.57.57,0,0,0-.034-.213A.3.3,0,0,0,36.99,50.685Z" transform="translate(-16.281 -28.63)" fill="#fff"/>
      <path id="Path_3638" data-name="Path 3638" d="M26.922,19.4V8.925l-.117-.117L21.114,3.117,21,3H10.991A1.593,1.593,0,0,0,9.4,4.593V18.031a.794.794,0,0,0-.4.686v5.789A1.994,1.994,0,0,0,10.991,26.5H25.329a1.994,1.994,0,0,0,1.991-1.991V20.083a.793.793,0,0,0-.4-.686Zm-9.678,5.461H14.681v-.633l1.562-2.273H14.791V21.3h2.433v.6l-1.615,2.306h1.633Zm1.243,0h-.761V21.3h.76ZM21.26,23.19a1.434,1.434,0,0,1-.939.272h-.545v1.394h-.76V21.3h1.31a2.054,2.054,0,0,1,.5.058,1.1,1.1,0,0,1,.4.186.885.885,0,0,1,.269.337,1.184,1.184,0,0,1,.1.5.977.977,0,0,1-.339.8Zm4.866-3.9H17.4l-.956-1.094a.8.8,0,0,0-.6-.272H10.195V4.593a.8.8,0,0,1,.8-.8h2.727a.4.4,0,0,0-.365.392v.206a.4.4,0,0,0,.4.4h1.106v1H13.751a.4.4,0,0,0-.4.4V6.4a.4.4,0,0,0,.4.4h1.106v1H13.751a.4.4,0,0,0-.4.4V8.41a.4.4,0,0,0,.4.4h1.106v1H13.751a.4.4,0,0,0-.4.4v.207a.4.4,0,0,0,.4.4h1.106v1H13.751a.4.4,0,0,0-.4.4v.207a.4.4,0,0,0,.4.4h1.106v.606a.4.4,0,0,0,.4.4h1.737a.4.4,0,0,0,.4-.4v-.207a.4.4,0,0,0-.4-.4H15.887v-1h1.106a.4.4,0,0,0,.4-.4v-.208a.4.4,0,0,0-.4-.4H15.887v-1h1.106a.4.4,0,0,0,.4-.4V9.208a.4.4,0,0,0-.4-.4H15.887v-1h1.106a.4.4,0,0,0,.4-.4V7.2a.4.4,0,0,0-.4-.4H15.887v-1h1.106a.4.4,0,0,0,.4-.4V5.19a.4.4,0,0,0-.4-.4H15.887v-1h4.547v4.1a1.593,1.593,0,0,0,1.593,1.593h4.1Z" transform="translate(0)" fill="#fff"/>
    </g>
  </g>
</svg>
