<svg xmlns="http://www.w3.org/2000/svg" width="22.134" height="22.134" viewBox="0 0 22.134 22.134">
  <g id="watch-icn" transform="translate(-0.5)">
    <g id="Group_10487" data-name="Group 10487" transform="translate(0.5)">
      <g id="Group_10486" data-name="Group 10486">
        <path id="Path_21954" data-name="Path 21954" d="M11.067,0A11.067,11.067,0,1,0,22.134,11.067,11.067,11.067,0,0,0,11.067,0Zm0,20.553a9.486,9.486,0,1,1,9.486-9.486A9.486,9.486,0,0,1,11.067,20.553Z"/>
      </g>
    </g>
    <g id="Group_10489" data-name="Group 10489" transform="translate(5.521 5.021)">
      <g id="Group_10488" data-name="Group 10488" transform="translate(0 0)">
        <path id="Path_21955" data-name="Path 21955" d="M92.448,85.333a.791.791,0,0,0-.791.791v5.534H86.124a.79.79,0,1,0,0,1.581h6.324a.791.791,0,0,0,.791-.791V86.124A.791.791,0,0,0,92.448,85.333Z" transform="translate(-85.333 -85.333)"/>
      </g>
    </g>
  </g>
</svg>
