
{
  "header": {
    "reportVersion": 1,
    "event": "Allocation failed - JavaScript heap out of memory",
    "trigger": "FatalError",
    "filename": "report.20210204.132935.12500.0.001.json",
    "dumpEventTime": "2021-02-04T13:29:35Z",
    "dumpEventTimeStamp": "1612425575870",
    "processId": 12500,
    "cwd": "E:\\Mohammad Afzal\\iquippo\\trunk",
    "commandLine": [
      "node",
      "C:\\Users\\mafzal\\AppData\\Roaming\\npm\\\\node_modules\\@angular\\cli\\bin\\ng",
      "s"
    ],
    "nodejsVersion": "v12.9.1",
    "wordSize": 64,
    "arch": "x64",
    "platform": "win32",
    "componentVersions": {
      "node": "12.9.1",
      "v8": "7.6.303.29-node.15",
      "uv": "1.31.0",
      "zlib": "1.2.11",
      "brotli": "1.0.7",
      "ares": "1.15.0",
      "modules": "72",
      "nghttp2": "1.39.2",
      "napi": "4",
      "llhttp": "1.1.4",
      "http_parser": "2.8.0",
      "openssl": "1.1.1c",
      "cldr": "35.1",
      "icu": "64.2",
      "tz": "2019a",
      "unicode": "12.1"
    },
    "release": {
      "name": "node",
      "headersUrl": "https://nodejs.org/download/release/v12.9.1/node-v12.9.1-headers.tar.gz",
      "sourceUrl": "https://nodejs.org/download/release/v12.9.1/node-v12.9.1.tar.gz",
      "libUrl": "https://nodejs.org/download/release/v12.9.1/win-x64/node.lib"
    },
    "osName": "Windows_NT",
    "osRelease": "10.0.19042",
    "osVersion": "Windows 10 Pro",
    "osMachine": "x86_64",
    "cpus": [
      {
        "model": "Intel(R) Core(TM) i7-4790 CPU @ 3.60GHz",
        "speed": 3592,
        "user": 121781,
        "nice": 0,
        "sys": 83828,
        "idle": 840843,
        "irq": 2515
      },
      {
        "model": "Intel(R) Core(TM) i7-4790 CPU @ 3.60GHz",
        "speed": 3592,
        "user": 65031,
        "nice": 0,
        "sys": 36375,
        "idle": 945046,
        "irq": 156
      },
      {
        "model": "Intel(R) Core(TM) i7-4790 CPU @ 3.60GHz",
        "speed": 3592,
        "user": 125437,
        "nice": 0,
        "sys": 60234,
        "idle": 860671,
        "irq": 250
      },
      {
        "model": "Intel(R) Core(TM) i7-4790 CPU @ 3.60GHz",
        "speed": 3592,
        "user": 78234,
        "nice": 0,
        "sys": 38281,
        "idle": 929828,
        "irq": 156
      },
      {
        "model": "Intel(R) Core(TM) i7-4790 CPU @ 3.60GHz",
        "speed": 3592,
        "user": 98203,
        "nice": 0,
        "sys": 58750,
        "idle": 889390,
        "irq": 312
      },
      {
        "model": "Intel(R) Core(TM) i7-4790 CPU @ 3.60GHz",
        "speed": 3592,
        "user": 71578,
        "nice": 0,
        "sys": 42328,
        "idle": 932437,
        "irq": 187
      },
      {
        "model": "Intel(R) Core(TM) i7-4790 CPU @ 3.60GHz",
        "speed": 3592,
        "user": 146687,
        "nice": 0,
        "sys": 78296,
        "idle": 821359,
        "irq": 390
      },
      {
        "model": "Intel(R) Core(TM) i7-4790 CPU @ 3.60GHz",
        "speed": 3592,
        "user": 80343,
        "nice": 0,
        "sys": 39140,
        "idle": 926859,
        "irq": 187
      }
    ],
    "networkInterfaces": [
      {
        "name": "Ethernet",
        "internal": false,
        "mac": "40:8d:5c:32:2a:00",
        "address": "fe80::25aa:67fb:5a32:b0cd",
        "netmask": "ffff:ffff:ffff:ffff::",
        "family": "IPv6",
        "scopeid": 11
      },
      {
        "name": "Ethernet",
        "internal": false,
        "mac": "40:8d:5c:32:2a:00",
        "address": "192.168.12.201",
        "netmask": "255.255.0.0",
        "family": "IPv4"
      },
      {
        "name": "Loopback Pseudo-Interface 1",
        "internal": true,
        "mac": "00:00:00:00:00:00",
        "address": "::1",
        "netmask": "ffff:ffff:ffff:ffff:ffff:ffff:ffff:ffff",
        "family": "IPv6",
        "scopeid": 0
      },
      {
        "name": "Loopback Pseudo-Interface 1",
        "internal": true,
        "mac": "00:00:00:00:00:00",
        "address": "127.0.0.1",
        "netmask": "255.0.0.0",
        "family": "IPv4"
      }
    ],
    "host": "Q3GN0318"
  },
  "javascriptStack": {
    "message": "No stack.",
    "stack": [
      "Unavailable."
    ]
  },
  "nativeStack": [
    {
      "pc": "0x00007ff663aa6ed9",
      "symbol": "std::basic_ostream<char,std::char_traits<char> >::operator<<+10873"
    },
    {
      "pc": "0x00007ff663aab26c",
      "symbol": "std::basic_ostream<char,std::char_traits<char> >::operator<<+28172"
    },
    {
      "pc": "0x00007ff663aaa218",
      "symbol": "std::basic_ostream<char,std::char_traits<char> >::operator<<+23992"
    },
    {
      "pc": "0x00007ff663b95e6b",
      "symbol": "v8::base::CPU::has_sse+37691"
    },
    {
      "pc": "0x00007ff6643889ae",
      "symbol": "v8::Isolate::ReportExternalAllocationLimitReached+94"
    },
    {
      "pc": "0x00007ff664370951",
      "symbol": "v8::SharedArrayBuffer::Externalize+833"
    },
    {
      "pc": "0x00007ff66423ec8c",
      "symbol": "v8::internal::Heap::EphemeronKeyWriteBarrierFromCode+1436"
    },
    {
      "pc": "0x00007ff66424812f",
      "symbol": "v8::internal::Heap::ProtectUnprotectedMemoryChunks+1279"
    },
    {
      "pc": "0x00007ff664246614",
      "symbol": "v8::internal::Heap::PageFlagsAreConsistent+3204"
    },
    {
      "pc": "0x00007ff66423c263",
      "symbol": "v8::internal::Heap::CollectGarbage+1235"
    },
    {
      "pc": "0x00007ff66423ab04",
      "symbol": "v8::internal::Heap::AddRetainedMap+2356"
    },
    {
      "pc": "0x00007ff66425a315",
      "symbol": "v8::internal::Factory::NewFillerObject+53"
    },
    {
      "pc": "0x00007ff663fc8fad",
      "symbol": "v8::internal::interpreter::JumpTableTargetOffsets::iterator::operator=+3981"
    },
    {
      "pc": "0x00007ff6647a224d",
      "symbol": "v8::internal::SetupIsolateDelegate::SetupHeap+575565"
    },
    {
      "pc": "0x00007ff6647210fd",
      "symbol": "v8::internal::SetupIsolateDelegate::SetupHeap+46845"
    },
    {
      "pc": "0x0000026df274f9ed",
      "symbol": ""
    }
  ],
  "javascriptHeap": {
    "totalMemory": 2180702208,
    "totalCommittedMemory": 2180702208,
    "usedMemory": 2066919208,
    "availableMemory": 46144600,
    "memoryLimit": 2197815296,
    "heapSpaces": {
      "read_only_space": {
        "memorySize": 262144,
        "committedMemory": 262144,
        "capacity": 261832,
        "used": 31432,
        "available": 230400
      },
      "new_space": {
        "memorySize": 33554432,
        "committedMemory": 33554432,
        "capacity": 16757248,
        "used": 4868872,
        "available": 11888376
      },
      "old_space": {
        "memorySize": 1937354752,
        "committedMemory": 1937354752,
        "capacity": 1867517088,
        "used": 1867361600,
        "available": 155488
      },
      "code_space": {
        "memorySize": 8290304,
        "committedMemory": 8290304,
        "capacity": 6825760,
        "used": 6825760,
        "available": 0
      },
      "map_space": {
        "memorySize": 24383488,
        "committedMemory": 24383488,
        "capacity": 11834560,
        "used": 11834560,
        "available": 0
      },
      "large_object_space": {
        "memorySize": 176234496,
        "committedMemory": 176234496,
        "capacity": 175446680,
        "used": 175446680,
        "available": 0
      },
      "code_large_object_space": {
        "memorySize": 622592,
        "committedMemory": 622592,
        "capacity": 550304,
        "used": 550304,
        "available": 0
      },
      "new_large_object_space": {
        "memorySize": 0,
        "committedMemory": 0,
        "capacity": 16757248,
        "used": 0,
        "available": 16757248
      }
    }
  },
  "resourceUsage": {
    "userCpuSeconds": 239.359,
    "kernelCpuSeconds": 15.5,
    "cpuConsumptionPercent": 104.88,
    "maxRss": 2549387264,
    "pageFaults": {
      "IORequired": 1661544,
      "IONotRequired": 0
    },
    "fsActivity": {
      "reads": 9602,
      "writes": 8
    }
  },
  "libuv": [
  ],
  "environmentVariables": {
    "": "C:=C:\\",
    "": "E:=E:\\Mohammad Afzal\\iquippo\\trunk",
    "ALLUSERSPROFILE": "C:\\ProgramData",
    "APPDATA": "C:\\Users\\mafzal\\AppData\\Roaming",
    "CLIENTNAME": "DESKTOP-K7IFGO9",
    "CommonProgramFiles": "C:\\Program Files\\Common Files",
    "CommonProgramFiles(x86)": "C:\\Program Files (x86)\\Common Files",
    "CommonProgramW6432": "C:\\Program Files\\Common Files",
    "COMPUTERNAME": "Q3GN0318",
    "ComSpec": "C:\\WINDOWS\\system32\\cmd.exe",
    "DriverData": "C:\\Windows\\System32\\Drivers\\DriverData",
    "FPS_BROWSER_APP_PROFILE_STRING": "Internet Explorer",
    "FPS_BROWSER_USER_PROFILE_STRING": "Default",
    "HOMEDRIVE": "C:",
    "HOMEPATH": "\\Users\\mafzal",
    "LOCALAPPDATA": "C:\\Users\\mafzal\\AppData\\Local",
    "LOGONSERVER": "\\\\Q3GN0005",
    "NUMBER_OF_PROCESSORS": "8",
    "OneDrive": "C:\\Users\\mafzal\\OneDrive",
    "OS": "Windows_NT",
    "Path": "C:\\Program Files (x86)\\Common Files\\Oracle\\Java\\javapath;C:\\WINDOWS\\system32;C:\\WINDOWS;C:\\WINDOWS\\System32\\Wbem;C:\\WINDOWS\\System32\\WindowsPowerShell\\v1.0\\;C:\\WINDOWS\\System32\\OpenSSH\\;C:\\Program Files\\nodejs\\;C:\\Program Files\\TortoiseSVN\\bin;C:\\Program Files\\dotnet\\;C:\\Program Files\\Microsoft SQL Server\\130\\Tools\\Binn\\;C:\\Program Files (x86)\\dotnet\\;C:\\Program Files\\Git\\cmd;C:\\Program Files\\Microsoft VS Code\\bin;C:\\Users\\mafzal\\AppData\\Local\\Microsoft\\WindowsApps;C:\\Users\\mafzal\\AppData\\Roaming\\npm;C:\\Program Files\\nodejs;",
    "PATHEXT": ".COM;.EXE;.BAT;.CMD;.VBS;.VBE;.JSE;.WSF;.WSH;.MSC;.CPL",
    "PROCESSOR_ARCHITECTURE": "AMD64",
    "PROCESSOR_IDENTIFIER": "Intel64 Family 6 Model 60 Stepping 3, GenuineIntel",
    "PROCESSOR_LEVEL": "6",
    "PROCESSOR_REVISION": "3c03",
    "ProgramData": "C:\\ProgramData",
    "ProgramFiles": "C:\\Program Files",
    "ProgramFiles(x86)": "C:\\Program Files (x86)",
    "ProgramW6432": "C:\\Program Files",
    "PROMPT": "$P$G",
    "PSModulePath": "C:\\Users\\mafzal\\Documents\\WindowsPowerShell\\Modules;C:\\Program Files\\WindowsPowerShell\\Modules;C:\\WINDOWS\\system32\\WindowsPowerShell\\v1.0\\Modules",
    "PUBLIC": "C:\\Users\\Public",
    "SESSIONNAME": "RDP-Tcp#2",
    "SystemDrive": "C:",
    "SystemRoot": "C:\\WINDOWS",
    "TEMP": "C:\\Users\\mafzal\\AppData\\Local\\Temp",
    "TMP": "C:\\Users\\mafzal\\AppData\\Local\\Temp",
    "USERDNSDOMAIN": "Q3INFOTECH.NET",
    "USERDOMAIN": "Q3INFOTECH",
    "USERDOMAIN_ROAMINGPROFILE": "Q3INFOTECH",
    "USERNAME": "mafzal",
    "USERPROFILE": "C:\\Users\\mafzal",
    "WEBPACK_DEV_SERVER": "true",
    "windir": "C:\\WINDOWS",
    "TERM_PROGRAM": "vscode",
    "TERM_PROGRAM_VERSION": "1.41.1",
    "LANG": "en_US.UTF-8",
    "COLORTERM": "truecolor"
  },
  "sharedObjects": [
    "C:\\Program Files\\nodejs\\node.exe",
    "C:\\WINDOWS\\SYSTEM32\\ntdll.dll",
    "C:\\WINDOWS\\System32\\KERNEL32.DLL",
    "C:\\WINDOWS\\System32\\KERNELBASE.dll",
    "C:\\WINDOWS\\System32\\SYSFER.DLL",
    "C:\\WINDOWS\\System32\\ADVAPI32.dll",
    "C:\\WINDOWS\\System32\\msvcrt.dll",
    "C:\\WINDOWS\\System32\\sechost.dll",
    "C:\\WINDOWS\\System32\\RPCRT4.dll",
    "C:\\WINDOWS\\System32\\WS2_32.dll",
    "C:\\WINDOWS\\System32\\USER32.dll",
    "C:\\WINDOWS\\System32\\win32u.dll",
    "C:\\WINDOWS\\System32\\GDI32.dll",
    "C:\\WINDOWS\\SYSTEM32\\dbghelp.dll",
    "C:\\WINDOWS\\System32\\gdi32full.dll",
    "C:\\WINDOWS\\System32\\ucrtbase.dll",
    "C:\\WINDOWS\\System32\\msvcp_win.dll",
    "C:\\WINDOWS\\System32\\PSAPI.DLL",
    "C:\\WINDOWS\\System32\\CRYPT32.dll",
    "C:\\WINDOWS\\System32\\bcrypt.dll",
    "C:\\WINDOWS\\SYSTEM32\\IPHLPAPI.DLL",
    "C:\\WINDOWS\\SYSTEM32\\USERENV.dll",
    "C:\\WINDOWS\\SYSTEM32\\WINMM.dll",
    "C:\\WINDOWS\\System32\\IMM32.DLL",
    "C:\\WINDOWS\\SYSTEM32\\powrprof.dll",
    "C:\\WINDOWS\\SYSTEM32\\UMPDC.dll",
    "C:\\WINDOWS\\system32\\uxtheme.dll",
    "C:\\WINDOWS\\System32\\combase.dll",
    "C:\\WINDOWS\\system32\\mswsock.dll",
    "C:\\WINDOWS\\SYSTEM32\\kernel.appcore.dll",
    "C:\\WINDOWS\\System32\\bcryptprimitives.dll",
    "C:\\WINDOWS\\SYSTEM32\\CRYPTBASE.DLL",
    "C:\\WINDOWS\\System32\\NSI.dll",
    "C:\\WINDOWS\\SYSTEM32\\dhcpcsvc6.DLL",
    "C:\\WINDOWS\\SYSTEM32\\dhcpcsvc.DLL",
    "C:\\WINDOWS\\SYSTEM32\\DNSAPI.dll",
    "C:\\Windows\\System32\\rasadhlp.dll",
    "C:\\WINDOWS\\System32\\fwpuclnt.dll",
    "C:\\WINDOWS\\system32\\napinsp.dll",
    "C:\\WINDOWS\\system32\\pnrpnsp.dll",
    "C:\\WINDOWS\\system32\\wshbth.dll",
    "C:\\WINDOWS\\system32\\NLAapi.dll",
    "C:\\WINDOWS\\System32\\winrnr.dll"
  ]
}